^C:\USERS\LUCAL\DESKTOP\TIISM6\TIISM6\DEBUG\DIVERSE.OBJ|C:\USERS\LUCAL\DESKTOP\TIISM6\TIISM6\DEBUG\MAIN.OBJ|C:\USERS\LUCAL\DESKTOP\TIISM6\TIISM6\DEBUG\SERII.OBJ|C:\USERS\LUCAL\DESKTOP\TIISM6\TIISM6\DEBUG\VECTORI.OBJ
C:\USERS\LUCAL\DESKTOP\TIISM6\DEBUG\TIISM6.ILK
C:\USERS\LUCAL\DESKTOP\TIISM6\DEBUG\TIISM6.EXE
C:\USERS\LUCAL\DESKTOP\TIISM6\DEBUG\TIISM6.PDB
